{
  "inform_medicine": {
    "precision": 0.6529051987767585,
    "recall": 0.6065340909090909,
    "f1-score": 0.6288659793814433,
    "support": 704,
    "confused_with": {
      "inform_symptoms": 177,
      "response": 70
    }
  },
  "inform_symptoms": {
    "precision": 0.8272659732540861,
    "recall": 0.8438802576733612,
    "f1-score": 0.8354905271056087,
    "support": 2639,
    "confused_with": {
      "response": 182,
      "inform_medicine": 117
    }
  },
  "request_inform": {
    "precision": 0.6541554959785523,
    "recall": 0.5823389021479713,
    "f1-score": 0.616161616161616,
    "support": 419,
    "confused_with": {
      "response": 68,
      "inform_symptoms": 52
    }
  },
  "greeting": {
    "precision": 0.8281596452328159,
    "recall": 0.7396039603960396,
    "f1-score": 0.7813807531380752,
    "support": 1010,
    "confused_with": {
      "inform_symptoms": 109,
      "response": 105
    }
  },
  "response": {
    "precision": 0.6707978311386522,
    "recall": 0.7596491228070176,
    "f1-score": 0.7124640065816537,
    "support": 1140,
    "confused_with": {
      "inform_symptoms": 127,
      "greeting": 69
    }
  },
  "accuracy": 0.7630243572395129,
  "macro avg": {
    "precision": 0.726656828876173,
    "recall": 0.7064012667866961,
    "f1-score": 0.7148725764736793,
    "support": 5912
  },
  "weighted avg": {
    "precision": 0.7642155083482057,
    "recall": 0.7630243572395129,
    "f1-score": 0.7623742212213289,
    "support": 5912
  }
}