{
  "SINTOMA": {
    "precision": 0.9144659046117461,
    "recall": 0.9202697342324474,
    "f1-score": 0.9173586397785686,
    "support": 2521,
    "confused_with": {}
  },
  "micro avg": {
    "precision": 0.9144659046117461,
    "recall": 0.9202697342324474,
    "f1-score": 0.9173586397785686,
    "support": 2521
  },
  "macro avg": {
    "precision": 0.9144659046117461,
    "recall": 0.9202697342324474,
    "f1-score": 0.9173586397785686,
    "support": 2521
  },
  "weighted avg": {
    "precision": 0.9144659046117461,
    "recall": 0.9202697342324474,
    "f1-score": 0.9173586397785686,
    "support": 2521
  }
}