{
  "SINTOMA": {
    "precision": 0.8923444976076556,
    "recall": 0.961340206185567,
    "f1-score": 0.9255583126550869,
    "support": 2328,
    "confused_with": {}
  },
  "micro avg": {
    "precision": 0.8923444976076556,
    "recall": 0.961340206185567,
    "f1-score": 0.9255583126550869,
    "support": 2328
  },
  "macro avg": {
    "precision": 0.8923444976076556,
    "recall": 0.961340206185567,
    "f1-score": 0.9255583126550869,
    "support": 2328
  },
  "weighted avg": {
    "precision": 0.8923444976076556,
    "recall": 0.961340206185567,
    "f1-score": 0.9255583126550869,
    "support": 2328
  }
}