{
  "SINTOMA": {
    "precision": 0.9004255319148936,
    "recall": 0.94002665482008,
    "f1-score": 0.9198000434688111,
    "support": 2251,
    "confused_with": {}
  },
  "micro avg": {
    "precision": 0.9004255319148936,
    "recall": 0.94002665482008,
    "f1-score": 0.9198000434688111,
    "support": 2251
  },
  "macro avg": {
    "precision": 0.9004255319148936,
    "recall": 0.94002665482008,
    "f1-score": 0.9198000434688111,
    "support": 2251
  },
  "weighted avg": {
    "precision": 0.9004255319148936,
    "recall": 0.94002665482008,
    "f1-score": 0.9198000434688112,
    "support": 2251
  }
}