{
  "SINTOMA": {
    "precision": 0.8616279069767442,
    "recall": 0.9665217391304348,
    "f1-score": 0.9110655737704918,
    "support": 2300,
    "confused_with": {}
  },
  "micro avg": {
    "precision": 0.8616279069767442,
    "recall": 0.9665217391304348,
    "f1-score": 0.9110655737704918,
    "support": 2300
  },
  "macro avg": {
    "precision": 0.8616279069767442,
    "recall": 0.9665217391304348,
    "f1-score": 0.9110655737704918,
    "support": 2300
  },
  "weighted avg": {
    "precision": 0.8616279069767442,
    "recall": 0.9665217391304348,
    "f1-score": 0.9110655737704919,
    "support": 2300
  }
}